/*------------------------------------------------------
 Company:           Seguros Falabella
 Author:            <%= authors %>
 
 Description:       <%= description %>
 Github:            <%= homepage %>

 Versión:           <%= version %>
 Build Date:        <%= grunt.template.today("yyyy-mm-dd H:MM:ss") %>
------------------------------------------------------*/

