<?xml version="1.0" encoding="UTF-8" standalone="no"?>
<svg width="82px" height="36px" viewBox="0 0 82 36" version="1.1" xmlns="http://www.w3.org/2000/svg" xmlns:xlink="http://www.w3.org/1999/xlink">
    <!-- Generator: Sketch 3.8.3 (29802) - http://www.bohemiancoding.com/sketch -->
    <title>img_seguroslogo_col</title>
    <desc>Created with Sketch.</desc>
    <defs></defs>
    <g id="Asset-artboards" stroke="none" stroke-width="1" fill="none" fill-rule="evenodd">
        <g id="img_seguroslogo_col">
            <g id="logo" transform="translate(-1.000000, 1.000000)">
                <g id="Group">
                    <path d="M38.804,24.063 L37.374,24.063 C37.205,24.063 37.031,24.073 36.837,24.096 C36.637,24.117 36.458,24.178 36.282,24.274 C36.113,24.383 35.965,24.514 35.852,24.703 C35.742,24.891 35.683,25.15 35.683,25.473 C35.683,25.947 35.831,26.274 36.113,26.46 C36.402,26.65 36.783,26.743 37.257,26.743 C37.321,26.743 37.423,26.74 37.546,26.728 C37.671,26.725 37.806,26.713 37.94,26.689 C38.079,26.668 38.223,26.641 38.379,26.607 C38.536,26.574 38.676,26.532 38.803,26.476 L38.803,24.062 L38.804,24.063 Z M40.56,27.172 C40.56,27.432 40.463,27.611 40.275,27.71 C40.059,27.818 39.822,27.915 39.575,27.99 C39.316,28.064 39.06,28.127 38.792,28.169 C38.524,28.211 38.259,28.244 38.001,28.261 C37.733,28.277 37.483,28.283 37.246,28.283 C36.592,28.283 36.048,28.212 35.62,28.065 C35.183,27.916 34.842,27.72 34.588,27.472 C34.339,27.224 34.162,26.936 34.063,26.601 C33.964,26.268 33.915,25.914 33.915,25.545 C33.915,25.156 33.973,24.791 34.086,24.435 C34.199,24.081 34.383,23.762 34.644,23.495 C34.907,23.23 35.233,23.015 35.647,22.846 C36.06,22.682 36.563,22.602 37.153,22.602 L38.821,22.602 L38.821,22.323 C38.821,22.116 38.8,21.924 38.764,21.744 C38.722,21.573 38.644,21.421 38.531,21.288 C38.418,21.16 38.261,21.054 38.068,20.989 C37.86,20.913 37.608,20.876 37.288,20.876 C36.952,20.876 36.588,20.909 36.189,20.981 C35.789,21.04 35.475,21.115 35.222,21.207 C35.113,21.235 35.033,21.241 34.986,21.225 C34.939,21.205 34.908,21.14 34.883,21.04 L34.678,20.104 C34.635,19.928 34.678,19.815 34.808,19.764 C35.222,19.595 35.678,19.464 36.174,19.391 C36.669,19.321 37.133,19.285 37.572,19.285 C38.604,19.285 39.357,19.538 39.839,20.04 C40.319,20.542 40.561,21.279 40.561,22.242 L40.561,27.172 L40.56,27.172 Z" id="Shape" fill="#9B9D98"></path>
                    <path d="M49.884,24.063 L48.459,24.063 C48.288,24.063 48.107,24.073 47.915,24.096 C47.72,24.117 47.541,24.178 47.368,24.274 C47.192,24.383 47.047,24.514 46.934,24.703 C46.818,24.891 46.764,25.15 46.764,25.473 C46.764,25.947 46.905,26.274 47.198,26.46 C47.481,26.65 47.859,26.743 48.34,26.743 C48.412,26.743 48.504,26.74 48.629,26.728 C48.749,26.725 48.881,26.713 49.021,26.689 C49.163,26.668 49.305,26.641 49.46,26.607 C49.614,26.574 49.753,26.532 49.883,26.476 L49.883,24.062 L49.884,24.063 Z M51.639,27.172 C51.639,27.432 51.544,27.611 51.35,27.71 C51.14,27.818 50.898,27.915 50.651,27.99 C50.396,28.064 50.135,28.127 49.867,28.169 C49.599,28.211 49.338,28.244 49.072,28.261 C48.81,28.277 48.563,28.283 48.324,28.283 C47.667,28.283 47.127,28.212 46.698,28.065 C46.265,27.916 45.925,27.72 45.672,27.472 C45.418,27.224 45.243,26.936 45.147,26.601 C45.041,26.268 44.993,25.914 44.993,25.545 C44.993,25.156 45.05,24.791 45.169,24.435 C45.284,24.081 45.462,23.762 45.724,23.495 C45.979,23.23 46.315,23.015 46.722,22.846 C47.138,22.682 47.636,22.602 48.229,22.602 L49.897,22.602 L49.897,22.323 C49.897,22.116 49.88,21.924 49.831,21.744 C49.796,21.573 49.723,21.421 49.609,21.288 C49.495,21.16 49.337,21.054 49.138,20.989 C48.941,20.913 48.683,20.876 48.366,20.876 C48.029,20.876 47.661,20.909 47.265,20.981 C46.869,21.04 46.548,21.115 46.301,21.207 C46.194,21.235 46.115,21.241 46.07,21.225 C46.017,21.205 45.979,21.14 45.957,21.04 L45.754,20.104 C45.708,19.928 45.758,19.815 45.887,19.764 C46.301,19.595 46.759,19.464 47.251,19.391 C47.751,19.321 48.216,19.285 48.652,19.285 C49.682,19.285 50.435,19.538 50.914,20.04 C51.394,20.542 51.638,21.279 51.638,22.242 L51.638,27.172 L51.639,27.172 Z" id="Shape" fill="#9B9D98"></path>
                    <path d="M64.135,20.877 C63.864,20.877 63.618,20.934 63.399,21.048 C63.18,21.169 62.995,21.327 62.85,21.516 C62.697,21.719 62.567,21.939 62.477,22.192 C62.38,22.439 62.331,22.703 62.324,22.98 L65.864,22.98 C65.864,22.682 65.838,22.412 65.782,22.157 C65.732,21.906 65.644,21.687 65.516,21.497 C65.384,21.303 65.21,21.149 64.997,21.041 C64.768,20.934 64.486,20.877 64.135,20.877 L64.135,20.877 Z M64.109,19.286 C65.283,19.286 66.163,19.611 66.73,20.255 C67.298,20.903 67.585,21.786 67.585,22.916 C67.585,23.2 67.553,23.435 67.493,23.623 C67.432,23.804 67.34,23.95 67.229,24.063 C67.117,24.174 66.986,24.255 66.839,24.293 C66.688,24.335 66.528,24.36 66.351,24.36 L62.261,24.36 C62.273,24.792 62.33,25.144 62.443,25.437 C62.558,25.728 62.715,25.961 62.902,26.141 C63.1,26.321 63.324,26.451 63.578,26.524 C63.841,26.601 64.119,26.642 64.415,26.642 C64.74,26.642 65.069,26.601 65.384,26.511 C65.702,26.429 65.978,26.32 66.211,26.197 C66.375,26.124 66.492,26.151 66.554,26.297 L66.971,27.227 C67.042,27.41 67.004,27.53 66.862,27.612 C66.474,27.865 66.05,28.037 65.581,28.135 C65.122,28.235 64.68,28.283 64.258,28.283 C63.017,28.283 62.067,27.929 61.417,27.215 C60.758,26.508 60.428,25.381 60.428,23.837 C60.428,23.111 60.518,22.468 60.707,21.907 C60.889,21.339 61.146,20.86 61.462,20.478 C61.796,20.087 62.178,19.79 62.628,19.597 C63.081,19.39 63.575,19.286 64.109,19.286 L64.109,19.286 Z" id="Shape" fill="#9B9D98"></path>
                    <path d="M80.616,24.063 L79.187,24.063 C79.022,24.063 78.841,24.073 78.65,24.096 C78.453,24.117 78.273,24.178 78.097,24.274 C77.921,24.383 77.781,24.514 77.667,24.703 C77.555,24.892 77.497,25.15 77.497,25.473 C77.497,25.947 77.642,26.274 77.926,26.46 C78.213,26.65 78.594,26.743 79.071,26.743 C79.145,26.743 79.234,26.74 79.358,26.728 C79.488,26.725 79.619,26.713 79.753,26.689 C79.894,26.668 80.04,26.641 80.193,26.607 C80.349,26.574 80.489,26.532 80.617,26.476 L80.617,24.062 L80.616,24.063 Z M82.371,27.172 C82.371,27.432 82.274,27.611 82.084,27.71 C81.871,27.818 81.638,27.915 81.384,27.99 C81.13,28.065 80.871,28.127 80.602,28.169 C80.334,28.212 80.064,28.244 79.811,28.261 C79.54,28.277 79.299,28.283 79.057,28.283 C78.403,28.283 77.867,28.212 77.425,28.065 C76.998,27.916 76.658,27.72 76.401,27.472 C76.152,27.224 75.978,26.936 75.873,26.601 C75.775,26.268 75.724,25.914 75.724,25.545 C75.724,25.156 75.782,24.791 75.898,24.435 C76.007,24.081 76.198,23.762 76.456,23.495 C76.71,23.23 77.047,23.015 77.456,22.846 C77.869,22.682 78.373,22.602 78.964,22.602 L80.631,22.602 L80.631,22.323 C80.631,22.116 80.614,21.924 80.573,21.744 C80.531,21.573 80.45,21.421 80.341,21.288 C80.223,21.16 80.069,21.054 79.87,20.989 C79.674,20.913 79.417,20.876 79.101,20.876 C78.767,20.876 78.395,20.909 77.995,20.981 C77.606,21.04 77.284,21.115 77.034,21.207 C76.925,21.235 76.842,21.241 76.795,21.225 C76.745,21.205 76.71,21.14 76.692,21.04 L76.481,20.104 C76.444,19.928 76.484,19.815 76.619,19.764 C77.033,19.595 77.489,19.464 77.984,19.391 C78.482,19.321 78.945,19.285 79.379,19.285 C80.411,19.285 81.169,19.538 81.65,20.04 C82.123,20.542 82.368,21.279 82.368,22.242 L82.368,27.172 L82.371,27.172 Z" id="Shape" fill="#9B9D98"></path>
                    <path d="M33.701,17.543 C33.666,17.481 33.58,17.457 33.441,17.457 L29.25,17.457 C28.752,17.457 28.324,17.537 27.988,17.702 C27.65,17.862 27.375,18.083 27.17,18.352 C26.956,18.633 26.809,18.944 26.727,19.3 C26.645,19.656 26.6,20.021 26.6,20.41 L26.6,28.609 C26.6,28.749 26.628,28.844 26.691,28.886 C26.752,28.93 26.838,28.952 26.947,28.952 L27.418,28.952 C27.74,28.929 28.419,28.749 28.419,27.678 L28.419,23.899 L32.887,23.899 C33.025,23.899 33.099,23.869 33.137,23.799 C33.174,23.733 33.191,23.643 33.191,23.521 L33.191,22.59 C33.191,22.429 33.174,22.336 33.137,22.289 C33.1,22.237 33.025,22.21 32.887,22.21 L28.419,22.21 L28.419,20.295 C28.419,19.946 28.493,19.676 28.655,19.497 C28.804,19.316 29.073,19.226 29.448,19.226 L33.441,19.226 C33.569,19.226 33.655,19.198 33.693,19.139 C33.737,19.092 33.756,18.993 33.756,18.845 L33.756,17.833 C33.756,17.704 33.737,17.605 33.701,17.545 L33.701,17.543 Z" id="Shape" fill="#9B9D98"></path>
                    <path d="M58.299,25.416 C58.195,25.772 58.053,26.066 57.875,26.293 C57.685,26.519 57.467,26.681 57.209,26.784 C56.949,26.889 56.658,26.937 56.342,26.937 C56.139,26.937 55.904,26.928 55.637,26.896 C55.376,26.871 55.126,26.815 54.877,26.729 L54.877,21.553 C55.202,21.446 55.51,21.378 55.805,21.349 C56.109,21.313 56.333,21.294 56.496,21.294 C57.11,21.294 57.584,21.527 57.932,21.995 C58.279,22.455 58.447,23.164 58.447,24.112 C58.447,24.626 58.397,25.062 58.299,25.417 L58.299,25.416 Z M60.066,22.292 C59.93,21.754 59.725,21.294 59.444,20.906 C59.165,20.521 58.807,20.214 58.363,20.005 C57.925,19.783 57.402,19.678 56.796,19.678 C56.517,19.678 56.206,19.699 55.856,19.75 C55.504,19.799 55.184,19.875 54.889,19.967 L54.876,16.834 C54.876,16.704 54.855,16.624 54.817,16.59 C54.776,16.555 54.699,16.543 54.587,16.543 L54.113,16.543 C53.774,16.57 53.132,16.756 53.113,17.758 L53.113,27.571 C53.113,27.664 53.125,27.74 53.162,27.806 C53.184,27.862 53.252,27.912 53.339,27.951 C53.795,28.177 54.291,28.323 54.836,28.404 C55.381,28.497 55.91,28.538 56.431,28.538 C57.092,28.538 57.675,28.426 58.166,28.202 C58.641,27.975 59.047,27.663 59.361,27.253 C59.672,26.85 59.905,26.374 60.049,25.82 C60.202,25.271 60.268,24.673 60.268,24.029 C60.268,23.404 60.206,22.824 60.063,22.292 L60.066,22.292 Z" id="Shape" fill="#9B9D98"></path>
                    <path d="M71.709,27.975 L71.605,27.067 C71.593,26.978 71.576,26.927 71.543,26.896 C71.51,26.87 71.452,26.867 71.377,26.874 C71.312,26.882 71.222,26.893 71.125,26.906 C71.026,26.92 70.929,26.922 70.858,26.922 C70.666,26.922 70.532,26.871 70.467,26.767 C70.399,26.668 70.371,26.475 70.371,26.194 L70.371,16.818 C70.371,16.694 70.344,16.622 70.299,16.589 C70.258,16.554 70.179,16.542 70.078,16.542 L69.612,16.542 C69.294,16.569 68.693,16.755 68.657,17.717 L68.657,26.646 C68.657,27.345 68.785,27.837 69.04,28.117 C69.286,28.402 69.678,28.538 70.226,28.538 C70.418,28.538 70.631,28.524 70.876,28.5 C71.125,28.469 71.345,28.417 71.536,28.327 C71.63,28.275 71.693,28.226 71.708,28.189 C71.729,28.153 71.729,28.081 71.708,27.974 L71.709,27.975 Z" id="Shape" fill="#9B9D98"></path>
                    <path d="M75.203,27.815 L75.101,26.907 C75.088,26.818 75.071,26.767 75.038,26.736 C75.007,26.71 74.943,26.707 74.87,26.714 C74.801,26.722 74.715,26.733 74.615,26.746 C74.516,26.76 74.424,26.762 74.349,26.762 C74.159,26.762 74.025,26.711 73.957,26.607 C73.891,26.508 73.861,26.315 73.861,26.034 L73.861,16.658 C73.861,16.534 73.836,16.462 73.794,16.429 C73.756,16.394 73.674,16.382 73.568,16.382 L73.105,16.382 C72.782,16.409 72.161,16.6 72.15,17.617 L72.15,26.486 C72.15,27.185 72.277,27.677 72.528,27.957 C72.777,28.242 73.174,28.378 73.711,28.378 C73.907,28.378 74.123,28.364 74.371,28.34 C74.614,28.309 74.832,28.257 75.033,28.167 C75.129,28.115 75.181,28.066 75.202,28.029 C75.223,27.993 75.223,27.921 75.202,27.814 L75.203,27.815 Z" id="Shape" fill="#9B9D98"></path>
                    <path d="M44.466,27.815 L44.364,26.907 C44.351,26.818 44.331,26.767 44.301,26.736 C44.268,26.71 44.209,26.707 44.129,26.714 C44.061,26.722 43.977,26.733 43.873,26.746 C43.772,26.76 43.684,26.762 43.608,26.762 C43.416,26.762 43.285,26.711 43.22,26.607 C43.15,26.508 43.117,26.315 43.117,26.034 L43.117,16.658 C43.117,16.534 43.099,16.462 43.054,16.429 C43.007,16.394 42.938,16.382 42.829,16.382 L42.362,16.382 C42.041,16.409 41.414,16.6 41.412,17.632 L41.412,26.486 C41.412,27.185 41.536,27.677 41.786,27.957 C42.041,28.242 42.433,28.378 42.976,28.378 C43.164,28.378 43.384,28.364 43.635,28.34 C43.873,28.309 44.096,28.257 44.289,28.167 C44.382,28.115 44.443,28.066 44.466,28.029 C44.484,27.993 44.484,27.921 44.466,27.814 L44.466,27.815 Z" id="Shape" fill="#9B9D98"></path>
                    <path d="M27.034,4.037 C27.034,3.592 27.112,3.184 27.267,2.813 C27.424,2.441 27.658,2.12 27.969,1.851 C28.282,1.58 28.674,1.371 29.147,1.223 C29.62,1.075 30.175,1.001 30.811,1.001 C31.111,1.001 31.424,1.016 31.746,1.047 C32.071,1.08 32.392,1.123 32.716,1.175 C33.039,1.228 33.351,1.297 33.652,1.382 C33.953,1.467 34.232,1.563 34.487,1.668 C34.577,1.722 34.633,1.77 34.655,1.812 C34.677,1.854 34.665,1.928 34.622,2.034 L34.22,3.115 C34.176,3.233 34.134,3.296 34.096,3.306 C34.056,3.316 33.993,3.312 33.902,3.29 C33.346,3.111 32.8,2.975 32.266,2.886 C31.73,2.795 31.234,2.75 30.777,2.75 C30.197,2.75 29.777,2.865 29.515,3.092 C29.253,3.319 29.123,3.588 29.123,3.896 C29.123,4.086 29.169,4.258 29.265,4.411 C29.359,4.565 29.513,4.712 29.725,4.856 C29.937,5 30.2,5.142 30.52,5.286 C30.837,5.43 31.222,5.586 31.68,5.755 C32.159,5.946 32.617,6.14 33.051,6.337 C33.485,6.534 33.87,6.763 34.204,7.028 C34.538,7.294 34.803,7.603 34.998,7.958 C35.193,8.313 35.29,8.745 35.29,9.254 C35.29,9.805 35.182,10.284 34.966,10.693 C34.748,11.1 34.452,11.438 34.079,11.702 C33.706,11.966 33.263,12.165 32.749,12.298 C32.237,12.43 31.686,12.497 31.096,12.497 C30.393,12.497 29.657,12.433 28.888,12.306 C28.12,12.178 27.406,11.947 26.75,11.606 C26.592,11.541 26.559,11.415 26.649,11.224 L27.151,10.143 C27.229,9.984 27.35,9.936 27.517,10.001 C28.053,10.212 28.605,10.388 29.18,10.533 C29.755,10.678 30.309,10.748 30.845,10.748 C31.692,10.748 32.291,10.61 32.642,10.335 C32.993,10.06 33.169,9.715 33.169,9.301 C33.169,9.079 33.124,8.882 33.035,8.712 C32.945,8.544 32.806,8.387 32.617,8.243 C32.428,8.1 32.187,7.964 31.899,7.83 C31.609,7.698 31.263,7.558 30.862,7.409 C30.259,7.187 29.72,6.964 29.242,6.741 C28.761,6.52 28.362,6.279 28.037,6.018 C27.715,5.759 27.466,5.467 27.294,5.143 C27.121,4.82 27.034,4.451 27.034,4.039 L27.034,4.037 Z" id="Shape" fill="#585958"></path>
                    <path d="M39.684,3.743 C40.949,3.743 41.886,4.066 42.495,4.711 C43.106,5.357 43.41,6.243 43.41,7.371 C43.41,7.657 43.378,7.891 43.311,8.078 C43.246,8.264 43.152,8.412 43.031,8.52 C42.91,8.63 42.77,8.707 42.609,8.75 C42.45,8.794 42.277,8.817 42.091,8.817 L37.704,8.817 C37.716,9.243 37.781,9.601 37.903,9.892 C38.023,10.182 38.187,10.417 38.398,10.598 C38.606,10.778 38.847,10.907 39.123,10.983 C39.397,11.059 39.694,11.097 40.014,11.097 C40.365,11.097 40.712,11.055 41.051,10.966 C41.392,10.88 41.689,10.775 41.942,10.654 C42.117,10.578 42.239,10.611 42.304,10.753 L42.75,11.689 C42.827,11.863 42.788,11.99 42.634,12.066 C42.217,12.318 41.76,12.493 41.266,12.591 C40.771,12.688 40.297,12.738 39.847,12.738 C38.517,12.738 37.5,12.383 36.796,11.671 C36.093,10.96 35.742,9.832 35.742,8.289 C35.742,7.567 35.841,6.924 36.04,6.36 C36.237,5.796 36.508,5.32 36.855,4.932 C37.202,4.544 37.618,4.248 38.101,4.045 C38.584,3.843 39.111,3.742 39.683,3.742 L39.684,3.743 Z M39.717,5.335 C39.42,5.335 39.156,5.393 38.925,5.507 C38.695,5.623 38.496,5.778 38.33,5.975 C38.166,6.172 38.035,6.396 37.935,6.649 C37.837,6.902 37.781,7.163 37.77,7.437 L41.563,7.437 C41.563,7.14 41.536,6.868 41.481,6.615 C41.425,6.363 41.33,6.143 41.192,5.951 C41.055,5.759 40.867,5.609 40.633,5.499 C40.396,5.391 40.09,5.335 39.716,5.335 L39.717,5.335 Z" id="Shape" fill="#585958"></path>
                    <path d="M51.639,11.744 C51.639,12.49 51.547,13.125 51.363,13.65 C51.179,14.175 50.905,14.615 50.539,14.966 C50.177,15.315 49.725,15.589 49.19,15.786 C48.653,15.984 48.024,16.132 47.308,16.23 C47.124,16.263 47.021,16.203 47,16.049 L46.837,14.8 C46.826,14.658 46.891,14.571 47.034,14.537 C47.433,14.472 47.8,14.393 48.132,14.3 C48.462,14.207 48.745,14.08 48.978,13.922 C49.211,13.762 49.39,13.566 49.515,13.329 C49.64,13.094 49.703,12.801 49.703,12.45 L49.703,12.35 C49.388,12.45 49.049,12.524 48.685,12.574 C48.322,12.622 47.989,12.648 47.685,12.648 C47.044,12.648 46.49,12.54 46.024,12.327 C45.558,12.114 45.172,11.815 44.869,11.431 C44.564,11.048 44.341,10.592 44.193,10.06 C44.048,9.528 43.972,8.94 43.972,8.294 C43.972,7.637 44.055,7.029 44.217,6.47 C44.379,5.911 44.629,5.432 44.967,5.032 C45.304,4.632 45.729,4.317 46.245,4.087 C46.761,3.857 47.376,3.743 48.092,3.743 C48.645,3.743 49.209,3.785 49.786,3.866 C50.361,3.948 50.892,4.1 51.381,4.317 C51.49,4.373 51.56,4.43 51.593,4.489 C51.626,4.551 51.641,4.625 51.641,4.712 L51.641,11.743 L51.639,11.744 Z M45.926,8.204 C45.926,9.171 46.109,9.879 46.48,10.329 C46.849,10.78 47.358,11.005 48.011,11.005 C48.184,11.005 48.425,10.988 48.733,10.955 C49.045,10.923 49.372,10.856 49.719,10.758 L49.719,5.551 C49.458,5.473 49.191,5.418 48.914,5.386 C48.637,5.352 48.39,5.336 48.173,5.336 C47.836,5.336 47.529,5.388 47.252,5.492 C46.976,5.597 46.741,5.762 46.545,5.987 C46.35,6.211 46.197,6.506 46.089,6.868 C45.981,7.23 45.927,7.676 45.927,8.203 L45.927,8.203 L45.926,8.204 Z" id="Shape" fill="#585958"></path>
                    <path d="M57.127,10.657 C57.244,10.657 57.415,10.655 57.634,10.651 C57.854,10.645 58.109,10.617 58.399,10.564 L58.399,4.012 C58.399,3.897 58.421,3.823 58.464,3.792 C58.507,3.759 58.587,3.744 58.705,3.744 L59.961,3.744 C60.07,3.744 60.148,3.759 60.198,3.792 C60.245,3.823 60.27,3.898 60.27,4.012 L60.27,10.786 C60.27,11.155 60.183,11.448 60.011,11.664 C59.838,11.88 59.565,12.025 59.187,12.099 C59.048,12.12 58.888,12.141 58.704,12.162 C58.522,12.183 58.334,12.199 58.14,12.209 C57.948,12.219 57.759,12.228 57.577,12.233 C57.393,12.238 57.233,12.24 57.091,12.24 C56.36,12.24 55.744,12.168 55.238,12.018 C54.734,11.87 54.325,11.636 54.013,11.315 C53.702,10.993 53.472,10.574 53.328,10.056 C53.184,9.54 53.111,8.917 53.111,8.189 L53.111,4.011 C53.111,3.896 53.132,3.822 53.174,3.791 C53.217,3.758 53.299,3.743 53.416,3.743 L54.674,3.743 C54.78,3.743 54.86,3.758 54.908,3.791 C54.957,3.822 54.98,3.897 54.98,4.011 L54.98,8.22 C54.98,8.632 55.007,8.992 55.06,9.297 C55.116,9.602 55.219,9.857 55.377,10.055 C55.532,10.256 55.749,10.407 56.029,10.507 C56.307,10.607 56.672,10.656 57.125,10.656 L57.127,10.657 Z" id="Shape" fill="#585958"></path>
                    <path d="M63.188,12.192 C63.139,12.225 63.053,12.24 62.932,12.24 L61.656,12.24 C61.547,12.24 61.465,12.226 61.417,12.192 C61.366,12.161 61.342,12.088 61.342,11.972 L61.342,5.169 C61.342,4.747 61.417,4.433 61.564,4.226 C61.713,4.02 62.026,3.885 62.5,3.824 C62.698,3.803 62.9,3.783 63.104,3.767 C63.308,3.752 63.515,3.744 63.725,3.744 C64.4,3.744 65.047,3.827 65.671,3.998 C66.294,4.166 66.861,4.452 67.369,4.853 C67.446,4.906 67.482,4.957 67.476,5.003 C67.469,5.051 67.451,5.101 67.418,5.155 L66.658,6.2 C66.601,6.285 66.547,6.323 66.492,6.313 C66.437,6.303 66.37,6.269 66.294,6.217 C65.974,5.953 65.629,5.75 65.258,5.607 C64.889,5.464 64.483,5.392 64.043,5.392 C63.91,5.392 63.777,5.398 63.645,5.409 C63.513,5.42 63.385,5.435 63.264,5.457 L63.264,11.973 C63.264,12.09 63.24,12.162 63.189,12.193 L63.188,12.192 Z" id="Shape" fill="#585958"></path>
                    <path d="M75.008,8.208 C75.008,9.664 74.662,10.783 73.97,11.566 C73.279,12.348 72.25,12.739 70.875,12.739 C69.517,12.739 68.501,12.36 67.833,11.599 C67.163,10.839 66.828,9.725 66.828,8.257 C66.828,7.535 66.929,6.895 67.131,6.337 C67.334,5.778 67.614,5.307 67.975,4.924 C68.336,4.541 68.765,4.248 69.266,4.046 C69.766,3.844 70.319,3.743 70.926,3.743 C72.267,3.743 73.279,4.138 73.97,4.933 C74.661,5.728 75.008,6.819 75.008,8.208 L75.008,8.208 Z M73.001,8.257 C73.001,7.861 72.969,7.487 72.908,7.134 C72.846,6.783 72.741,6.471 72.587,6.201 C72.434,5.933 72.227,5.719 71.964,5.566 C71.7,5.411 71.366,5.334 70.961,5.334 C70.602,5.334 70.286,5.408 70.017,5.558 C69.746,5.706 69.521,5.906 69.341,6.16 C69.163,6.413 69.029,6.715 68.946,7.068 C68.863,7.421 68.82,7.8 68.82,8.207 C68.82,9.121 68.972,9.84 69.276,10.363 C69.579,10.885 70.119,11.146 70.894,11.146 C71.288,11.146 71.62,11.066 71.889,10.907 C72.159,10.749 72.376,10.536 72.539,10.271 C72.702,10.006 72.82,9.702 72.892,9.354 C72.966,9.006 73.002,8.641 73.002,8.256 L73.001,8.257 Z" id="Shape" fill="#585958"></path>
                    <path d="M81.703,10.145 C81.703,10.583 81.622,10.966 81.458,11.295 C81.297,11.623 81.073,11.893 80.784,12.107 C80.5,12.321 80.161,12.479 79.774,12.583 C79.382,12.687 78.961,12.739 78.507,12.739 C78.246,12.739 77.971,12.726 77.68,12.698 C77.388,12.671 77.097,12.63 76.806,12.576 C76.514,12.52 76.232,12.447 75.962,12.353 C75.691,12.261 75.443,12.147 75.217,12.018 C75.055,11.929 75.017,11.799 75.105,11.623 L75.493,10.703 C75.547,10.604 75.6,10.541 75.654,10.514 C75.708,10.487 75.793,10.5 75.914,10.556 C76.302,10.741 76.733,10.887 77.208,10.991 C77.682,11.094 78.1,11.146 78.469,11.146 C78.922,11.146 79.263,11.056 79.488,10.875 C79.713,10.694 79.827,10.462 79.827,10.178 C79.827,9.86 79.681,9.609 79.391,9.422 C79.1,9.237 78.663,9.034 78.082,8.816 C77.639,8.651 77.253,8.487 76.925,8.323 C76.597,8.157 76.323,7.975 76.108,7.771 C75.892,7.569 75.729,7.343 75.617,7.091 C75.501,6.84 75.445,6.549 75.445,6.221 C75.445,5.859 75.509,5.527 75.64,5.227 C75.772,4.927 75.965,4.667 76.22,4.447 C76.477,4.229 76.793,4.056 77.172,3.932 C77.552,3.806 77.989,3.742 78.487,3.742 C78.936,3.742 79.391,3.783 79.844,3.864 C80.297,3.945 80.734,4.075 81.153,4.251 C81.242,4.294 81.291,4.348 81.308,4.416 C81.324,4.48 81.322,4.558 81.3,4.646 L80.928,5.581 C80.896,5.668 80.856,5.718 80.805,5.728 C80.757,5.739 80.688,5.728 80.603,5.697 C80.182,5.543 79.811,5.441 79.493,5.384 C79.175,5.331 78.835,5.303 78.468,5.303 C78.068,5.303 77.778,5.386 77.595,5.557 C77.411,5.727 77.32,5.916 77.32,6.122 C77.32,6.276 77.351,6.41 77.408,6.517 C77.469,6.628 77.563,6.729 77.692,6.821 C77.821,6.915 77.989,7.01 78.2,7.109 C78.411,7.208 78.668,7.311 78.969,7.42 C79.314,7.551 79.652,7.691 79.98,7.84 C80.309,7.987 80.599,8.165 80.855,8.373 C81.108,8.581 81.314,8.827 81.468,9.111 C81.624,9.395 81.704,9.741 81.704,10.145 L81.703,10.145 Z" id="Shape" fill="#585958"></path>
                    <path d="M11.966,15.936 L11.966,25.786 C11.969,26.687 12.719,27.418 13.645,27.418 C14.574,27.418 15.326,26.686 15.326,25.786 C15.326,25.298 15.736,24.905 16.239,24.905 C16.739,24.905 17.146,25.298 17.146,25.786 C17.146,27.665 15.579,29.185 13.645,29.185 C11.715,29.185 10.15,27.664 10.15,25.786 L10.15,15.936 C6.852,15.991 3.604,16.349 0.999,16.991 L0.999,30.848 C0.999,31.811 1.805,32.596 2.799,32.596 L19.315,32.596 C20.311,32.596 21.113,31.811 21.113,30.848 L21.113,16.992 C18.513,16.349 15.266,15.991 11.965,15.937 L11.966,15.936 Z M19.316,1 L2.799,1 C1.806,1 1,1.781 1,2.746 L1,10.186 C3.155,7.019 6.856,4.928 11.057,4.928 C15.262,4.928 18.961,7.022 21.115,10.191 L21.115,2.745 C21.115,1.781 20.312,0.999 19.317,0.999 L19.316,1 Z M18.267,9.618 C16.418,7.841 13.877,6.746 11.057,6.745 C8.24,6.746 5.695,7.841 3.849,9.618 C2.375,11.034 1.355,12.879 1,14.941 L1,15.362 C3.966,14.688 7.509,14.363 11.057,14.36 C14.606,14.363 18.151,14.688 21.114,15.362 L21.114,14.958 C20.763,12.887 19.743,11.039 18.266,9.618 L18.267,9.618 Z" id="Shape" fill="#34A747"></path>
                </g>
            </g>
        </g>
    </g>
</svg>